{
  "minecraft:recipes/misc/book": {
    "criteria": {
      "has_paper": "2020-09-17 20:58:30 -0400"
    },
    "done": true
  },
  "minecraft:adventure/adventuring_time": {
    "criteria": {
      "forest": "2020-09-17 21:03:10 -0400",
      "swampland": "2020-09-17 21:04:02 -0400",
      "birch_forest": "2020-09-17 21:01:16 -0400",
      "deep_ocean": "2020-09-17 21:06:41 -0400",
      "beaches": "2020-09-17 21:05:26 -0400",
      "extreme_hills_with_trees": "2020-09-17 21:10:36 -0400",
      "desert_hills": "2020-09-17 20:58:32 -0400",
      "forest_hills": "2020-09-17 21:02:17 -0400",
      "savanna": "2020-09-17 20:59:18 -0400",
      "plains": "2020-09-17 21:01:34 -0400",
      "savanna_rock": "2020-09-17 21:11:24 -0400",
      "taiga": "2020-09-17 21:03:15 -0400",
      "taiga_hills": "2020-09-17 21:03:24 -0400",
      "birch_forest_hills": "2020-09-17 21:01:11 -0400",
      "ocean": "2020-09-17 21:05:25 -0400",
      "extreme_hills": "2020-09-17 21:05:09 -0400",
      "roofed_forest": "2020-09-17 21:05:12 -0400",
      "river": "2020-09-17 21:00:24 -0400",
      "desert": "2020-09-17 20:58:52 -0400",
      "stone_beach": "2020-09-17 21:16:53 -0400"
    },
    "done": false
  }
}