{
  "minecraft:recipes/misc/book": {
    "criteria": {
      "has_paper": "2020-09-21 00:39:55 -0400"
    },
    "done": true
  },
  "minecraft:recipes/transportation/rail": {
    "criteria": {
      "has_minecart": "2020-09-21 01:24:05 -0400"
    },
    "done": true
  },
  "minecraft:recipes/transportation/tnt_minecart": {
    "criteria": {
      "has_minecart": "2020-09-21 01:24:05 -0400"
    },
    "done": true
  },
  "minecraft:recipes/transportation/furnace_minecart": {
    "criteria": {
      "has_minecart": "2020-09-21 01:24:05 -0400"
    },
    "done": true
  },
  "minecraft:recipes/decorations/chest": {
    "criteria": {
      "has_lots_of_items": "2020-09-21 00:39:55 -0400"
    },
    "done": true
  },
  "minecraft:recipes/transportation/hopper_minecart": {
    "criteria": {
      "has_minecart": "2020-09-21 01:24:05 -0400"
    },
    "done": true
  },
  "minecraft:recipes/transportation/chest_minecart": {
    "criteria": {
      "has_minecart": "2020-09-21 01:24:05 -0400"
    },
    "done": true
  },
  "minecraft:adventure/adventuring_time": {
    "criteria": {
      "forest": "2020-09-21 00:42:07 -0400",
      "swampland": "2020-09-21 00:41:19 -0400",
      "birch_forest": "2020-09-21 00:41:47 -0400",
      "deep_ocean": "2020-09-21 00:43:45 -0400",
      "beaches": "2020-09-21 00:43:20 -0400",
      "extreme_hills_with_trees": "2020-09-21 00:52:06 -0400",
      "desert_hills": "2020-09-21 00:44:36 -0400",
      "forest_hills": "2020-09-21 00:42:13 -0400",
      "savanna": "2020-09-21 01:03:56 -0400",
      "plains": "2020-09-21 00:40:15 -0400",
      "savanna_rock": "2020-09-21 01:04:28 -0400",
      "taiga": "2020-09-21 00:40:10 -0400",
      "taiga_hills": "2020-09-21 00:40:58 -0400",
      "birch_forest_hills": "2020-09-21 00:41:51 -0400",
      "ocean": "2020-09-21 00:43:11 -0400",
      "extreme_hills": "2020-09-21 00:40:33 -0400",
      "roofed_forest": "2020-09-21 00:42:39 -0400",
      "river": "2020-09-21 00:40:26 -0400",
      "desert": "2020-09-21 00:44:32 -0400",
      "stone_beach": "2020-09-21 00:49:10 -0400"
    },
    "done": false
  }
}