{
  "minecraft:recipes/misc/book": {
    "criteria": {
      "has_paper": "2020-05-30 20:46:34 -0400"
    },
    "done": true
  },
  "minecraft:recipes/decorations/anvil": {
    "criteria": {
      "has_iron_block": "2020-05-30 20:52:46 -0400"
    },
    "done": true
  },
  "minecraft:recipes/misc/iron_ingot_from_block": {
    "criteria": {
      "has_iron_block": "2020-05-30 20:52:46 -0400"
    },
    "done": true
  },
  "minecraft:adventure/adventuring_time": {
    "criteria": {
      "ice_flats": "2020-05-30 20:48:49 -0400",
      "frozen_river": "2020-05-30 20:48:55 -0400",
      "forest": "2020-05-30 20:46:37 -0400",
      "deep_ocean": "2020-05-30 20:47:40 -0400",
      "beaches": "2020-05-30 20:47:28 -0400",
      "taiga": "2020-05-30 20:48:12 -0400",
      "ocean": "2020-05-30 20:47:30 -0400",
      "extreme_hills": "2020-05-30 20:46:51 -0400",
      "cold_beach": "2020-05-30 20:49:01 -0400",
      "river": "2020-05-30 20:48:10 -0400",
      "stone_beach": "2020-05-30 20:47:27 -0400"
    },
    "done": false
  }
}