{
  "minecraft:recipes/misc/book": {
    "criteria": {
      "has_paper": "2019-02-08 17:50:39 -0500"
    },
    "done": true
  },
  "minecraft:nether/create_beacon": {
    "criteria": {
      "beacon": "2019-02-08 18:48:57 -0500"
    },
    "done": true
  },
  "minecraft:recipes/decorations/anvil": {
    "criteria": {
      "has_iron_block": "2019-02-08 18:48:45 -0500"
    },
    "done": true
  },
  "minecraft:recipes/decorations/chest": {
    "criteria": {
      "has_lots_of_items": "2019-02-08 17:50:39 -0500"
    },
    "done": true
  },
  "minecraft:recipes/misc/iron_ingot_from_block": {
    "criteria": {
      "has_iron_block": "2019-02-08 18:48:45 -0500"
    },
    "done": true
  },
  "minecraft:adventure/adventuring_time": {
    "criteria": {
      "forest": "2019-02-08 17:57:55 -0500",
      "swampland": "2019-02-08 17:55:21 -0500",
      "deep_ocean": "2019-02-08 17:50:40 -0500",
      "beaches": "2019-02-08 17:54:17 -0500",
      "forest_hills": "2019-02-08 18:33:42 -0500",
      "plains": "2019-02-08 18:32:50 -0500",
      "taiga": "2019-02-08 17:54:19 -0500",
      "ocean": "2019-02-08 17:50:44 -0500",
      "extreme_hills": "2019-02-08 18:32:35 -0500",
      "river": "2019-02-08 17:54:16 -0500"
    },
    "done": false
  }
}